cpu/cpu_tb.vcd
$date
	Fri Jun 13 09:49:15 2025
$end
$version
	Icarus Verilog
$end
$timescale
	1ps
$end
$scope module cpu_tb $end
$var wire 32 ! pc_out [31:0] $end
$var wire 2 " mem_write_ma [1:0] $end
$var wire 2 # mem_read_ma [1:0] $end
$var wire 32 $ instr_if [31:0] $end
$var wire 32 % dmem_data_out [31:0] $end
$var wire 32 & dmem_data_in [31:0] $end
$var wire 32 ' alu_result_ma [31:0] $end
$var reg 1 ( clk $end
$var reg 1 ) reset $end
$var integer 32 * i [31:0] $end
$scope module cpu_t $end
$var wire 1 ( clk $end
$var wire 1 ) reset $end
$var wire 1 + zero $end
$var wire 32 , rt_data_id [31:0] $end
$var wire 32 - rt_data_ex [31:0] $end
$var wire 32 . rs_data_id [31:0] $end
$var wire 32 / rs_data_ex [31:0] $end
$var wire 2 0 reg_write_select_wb [1:0] $end
$var wire 2 1 reg_write_select_ma [1:0] $end
$var wire 2 2 reg_write_select_id [1:0] $end
$var wire 2 3 reg_write_select_ex [1:0] $end
$var wire 1 4 reg_write_enable_wb $end
$var wire 1 5 reg_write_enable_ma $end
$var wire 1 6 reg_write_enable_id $end
$var wire 1 7 reg_write_enable_ex $end
$var wire 32 8 reg_write_data_wb [31:0] $end
$var wire 1 9 pc_sel_ma $end
$var wire 1 : pc_sel_ex $end
$var wire 32 ; pc_plus_offset_ma [31:0] $end
$var wire 32 < pc_plus_4_wb [31:0] $end
$var wire 32 = pc_plus_4_ma [31:0] $end
$var wire 32 > pc_plus_4_if [31:0] $end
$var wire 32 ? pc_out [31:0] $end
$var wire 32 @ pc_ma [31:0] $end
$var wire 32 A pc_initial_if [31:0] $end
$var wire 32 B pc_id [31:0] $end
$var wire 32 C pc_ex [31:0] $end
$var wire 1 D op_sel_id $end
$var wire 1 E op_sel_ex $end
$var wire 2 F mem_write_ma [1:0] $end
$var wire 2 G mem_write_id [1:0] $end
$var wire 2 H mem_write_ex [1:0] $end
$var wire 2 I mem_read_ma [1:0] $end
$var wire 2 J mem_read_id [1:0] $end
$var wire 2 K mem_read_ex [1:0] $end
$var wire 5 L instr_wb [4:0] $end
$var wire 5 M instr_ma [4:0] $end
$var wire 32 N instr_if [31:0] $end
$var wire 32 O instr_id [31:0] $end
$var wire 5 P instr_ex [4:0] $end
$var wire 3 Q imm_sel_id [2:0] $end
$var wire 32 R imm_id [31:0] $end
$var wire 32 S imm_ex [31:0] $end
$var wire 32 T dmem_out_wb [31:0] $end
$var wire 32 U dmem_data_out [31:0] $end
$var wire 32 V dmem_data_in [31:0] $end
$var wire 2 W branch_jump_id [1:0] $end
$var wire 2 X branch_jump_ex [1:0] $end
$var wire 5 Y aluop_id [4:0] $end
$var wire 32 Z alu_result_wb [31:0] $end
$var wire 32 [ alu_result_ma [31:0] $end
$var wire 32 \ alu_result_ex [31:0] $end
$var wire 5 ] alu_op_ex [4:0] $end
$var wire 32 ^ alu_input2_ex [31:0] $end
$scope module alu $end
$var wire 32 _ andData [31:0] $end
$var wire 32 ` mulhData [31:0] $end
$var wire 32 a mulhsuData [31:0] $end
$var wire 32 b mulhuData [31:0] $end
$var wire 32 c orData [31:0] $end
$var wire 32 d xorData [31:0] $end
$var wire 32 e subData [31:0] $end
$var wire 32 f srlData [31:0] $end
$var wire 32 g sraData [31:0] $end
$var wire 32 h sltuData [31:0] $end
$var wire 32 i sltData [31:0] $end
$var wire 32 j sllData [31:0] $end
$var wire 32 k remuData [31:0] $end
$var wire 32 l remData [31:0] $end
$var wire 32 m mulData [31:0] $end
$var wire 32 n divuData [31:0] $end
$var wire 32 o divData [31:0] $end
$var wire 32 p addData [31:0] $end
$var wire 5 q SELECT [4:0] $end
$var wire 32 r DATA2 [31:0] $end
$var wire 32 s DATA1 [31:0] $end
$var reg 32 t RESULT [31:0] $end
$var reg 1 + ZERO $end
$upscope $end
$scope module alu_input2_mux $end
$var wire 1 E sel $end
$var wire 32 u out [31:0] $end
$var wire 32 v in1 [31:0] $end
$var wire 32 w in0 [31:0] $end
$upscope $end
$scope module branch_selector $end
$var wire 1 + ZERO $end
$var wire 2 x BRANCH_SEL [1:0] $end
$var reg 1 : PC_SEL $end
$upscope $end
$scope module control_unit $end
$var wire 3 y funct3 [2:0] $end
$var wire 7 z funct7 [6:0] $end
$var wire 7 { opcode [6:0] $end
$var wire 2 | write_back_sel [1:0] $end
$var wire 1 D use_imm $end
$var wire 1 6 reg_write_en $end
$var wire 2 } mem_write [1:0] $end
$var wire 2 ~ mem_read [1:0] $end
$var wire 3 !" imm_sel [2:0] $end
$var wire 2 "" branch_sel [1:0] $end
$var wire 5 #" alu_op [4:0] $end
$upscope $end
$scope module data_mux $end
$var wire 32 $" in3 [31:0] $end
$var wire 2 %" sel [1:0] $end
$var wire 32 &" out [31:0] $end
$var wire 32 '" in2 [31:0] $end
$var wire 32 (" in1 [31:0] $end
$var wire 32 )" in0 [31:0] $end
$upscope $end
$scope module ex_ma_reg $end
$var wire 32 *" ALU_RESULT [31:0] $end
$var wire 1 ( CLK $end
$var wire 1 : PC_SEL $end
$var wire 1 ) RESET $end
$var wire 2 +" REG_WRITE_SEL [1:0] $end
$var wire 1 7 REG_WRITE_ENABLE $end
$var wire 32 ," PC_PLUS_4 [31:0] $end
$var wire 2 -" MEM_WRITE [1:0] $end
$var wire 2 ." MEM_READ [1:0] $end
$var wire 32 /" IMMEDIATE [31:0] $end
$var wire 5 0" DEST_REG [4:0] $end
$var reg 32 1" OUT_ALU_RESULT [31:0] $end
$var reg 5 2" OUT_DEST_REG [4:0] $end
$var reg 32 3" OUT_IMMEDIATE [31:0] $end
$var reg 2 4" OUT_MEM_READ [1:0] $end
$var reg 2 5" OUT_MEM_WRITE [1:0] $end
$var reg 32 6" OUT_PC_PLUS_4 [31:0] $end
$var reg 1 9 OUT_PC_SEL $end
$var reg 1 5 OUT_REG_WRITE_ENABLE $end
$var reg 2 7" OUT_REG_WRITE_SEL [1:0] $end
$upscope $end
$scope module id_ex_reg $end
$var wire 5 8" ALU_OP [4:0] $end
$var wire 2 9" BRANCH_JUMP [1:0] $end
$var wire 1 ( CLK $end
$var wire 5 :" DEST_REG [4:0] $end
$var wire 2 ;" MEM_READ [1:0] $end
$var wire 2 <" MEM_WRITE [1:0] $end
$var wire 1 D OP_SEL $end
$var wire 1 6 REG_WRITE_ENABLE $end
$var wire 2 =" REG_WRITE_SEL [1:0] $end
$var wire 1 ) RESET $end
$var wire 32 >" READ_DATA2 [31:0] $end
$var wire 32 ?" READ_DATA1 [31:0] $end
$var wire 32 @" PC_PLUS_4 [31:0] $end
$var wire 32 A" IMMEDIATE [31:0] $end
$var reg 5 B" OUT_ALU_OP [4:0] $end
$var reg 2 C" OUT_BRANCH_JUMP [1:0] $end
$var reg 5 D" OUT_DEST_REG [4:0] $end
$var reg 32 E" OUT_IMMEDIATE [31:0] $end
$var reg 2 F" OUT_MEM_READ [1:0] $end
$var reg 2 G" OUT_MEM_WRITE [1:0] $end
$var reg 1 E OUT_OP_SEL $end
$var reg 32 H" OUT_PC_PLUS_4 [31:0] $end
$var reg 32 I" OUT_READ_DATA1 [31:0] $end
$var reg 32 J" OUT_READ_DATA2 [31:0] $end
$var reg 1 7 OUT_REG_WRITE_ENABLE $end
$var reg 2 K" OUT_REG_WRITE_SEL [1:0] $end
$upscope $end
$scope module if_id_reg $end
$var wire 1 ( CLK $end
$var wire 1 ) RESET $end
$var wire 32 L" PC_PLUS_4 [31:0] $end
$var wire 32 M" INSTRUCTION [31:0] $end
$var reg 32 N" OUT_INSTRUCTION [31:0] $end
$var reg 32 O" OUT_PC_PLUS_4 [31:0] $end
$upscope $end
$scope module ma_wb_reg $end
$var wire 32 P" ALU_RESULT [31:0] $end
$var wire 1 ( CLK $end
$var wire 5 Q" DEST_REG [4:0] $end
$var wire 1 5 REG_WRITE_ENABLE $end
$var wire 2 R" REG_WRITE_SEL [1:0] $end
$var wire 1 ) RESET $end
$var wire 32 S" PC_PLUS_4 [31:0] $end
$var wire 32 T" DATA_OUT [31:0] $end
$var reg 32 U" OUT_ALU_RESULT [31:0] $end
$var reg 32 V" OUT_DATA_OUT [31:0] $end
$var reg 5 W" OUT_DEST_REG [4:0] $end
$var reg 32 X" OUT_PC_PLUS_4 [31:0] $end
$var reg 1 4 OUT_REG_WRITE_ENABLE $end
$var reg 2 Y" OUT_REG_WRITE_SEL [1:0] $end
$upscope $end
$scope module pc $end
$var wire 1 ( clk $end
$var wire 1 ) reset $end
$var wire 32 Z" pc_in [31:0] $end
$var reg 32 [" pc_out [31:0] $end
$upscope $end
$scope module pc_adder $end
$var wire 32 \" pc_in [31:0] $end
$var wire 32 ]" pc_out [31:0] $end
$upscope $end
$scope module pc_adder_ma $end
$var wire 32 ^" pc_in [31:0] $end
$var wire 32 _" pc_out [31:0] $end
$upscope $end
$scope module pc_mux $end
$var wire 32 `" in0 [31:0] $end
$var wire 1 9 sel $end
$var wire 32 a" out [31:0] $end
$var wire 32 b" in1 [31:0] $end
$upscope $end
$scope module pc_offset_adder $end
$var wire 32 c" a [31:0] $end
$var wire 32 d" b [31:0] $end
$var wire 32 e" sum [31:0] $end
$upscope $end
$scope module reg_file $end
$var wire 1 ( CLK $end
$var wire 32 f" DATA_OUT1 [31:0] $end
$var wire 32 g" DATA_OUT2 [31:0] $end
$var wire 5 h" OUT_ADDR1 [4:0] $end
$var wire 5 i" OUT_ADDR2 [4:0] $end
$var wire 1 ) RESET $end
$var wire 5 j" WRITE_ADDR [4:0] $end
$var wire 32 k" WRITE_DATA [31:0] $end
$var wire 1 4 WRITE_ENABLE $end
$var integer 32 l" i [31:0] $end
$upscope $end
$scope module sign_extender $end
$var wire 3 m" imm_sel [2:0] $end
$var wire 25 n" instr_25 [24:0] $end
$var wire 32 o" imm_u [31:0] $end
$var wire 12 p" imm_s [11:0] $end
$var wire 21 q" imm_j [20:0] $end
$var wire 12 r" imm_i [11:0] $end
$var wire 13 s" imm_b [12:0] $end
$var reg 32 t" imm_out [31:0] $end
$upscope $end
$upscope $end
$scope module dmem_t $end
$var wire 32 u" address [31:0] $end
$var wire 1 ( clk $end
$var wire 32 v" data_in [31:0] $end
$var wire 2 w" mem_read [1:0] $end
$var wire 2 x" mem_write [1:0] $end
$var wire 1 ) reset $end
$var reg 32 y" data_out [31:0] $end
$upscope $end
$scope module imem_t $end
$var wire 1 ( clk $end
$var wire 32 z" pc [31:0] $end
$var wire 1 ) reset $end
$var reg 32 {" instruction [31:0] $end
$upscope $end
$upscope $end
$scope module cpu_tb $end
$scope module cpu_t $end
$scope module reg_file $end
$var reg 32 |" \REGISTERS[0] [31:0] $end
$upscope $end
$upscope $end
$upscope $end
$scope module cpu_tb $end
$scope module cpu_t $end
$scope module reg_file $end
$var reg 32 }" \REGISTERS[1] [31:0] $end
$upscope $end
$upscope $end
$upscope $end
$scope module cpu_tb $end
$scope module cpu_t $end
$scope module reg_file $end
$var reg 32 ~" \REGISTERS[2] [31:0] $end
$upscope $end
$upscope $end
$upscope $end
$scope module cpu_tb $end
$scope module cpu_t $end
$scope module reg_file $end
$var reg 32 !# \REGISTERS[3] [31:0] $end
$upscope $end
$upscope $end
$upscope $end
$scope module cpu_tb $end
$scope module cpu_t $end
$scope module reg_file $end
$var reg 32 "# \REGISTERS[4] [31:0] $end
$upscope $end
$upscope $end
$upscope $end
$scope module cpu_tb $end
$scope module cpu_t $end
$scope module reg_file $end
$var reg 32 ## \REGISTERS[5] [31:0] $end
$upscope $end
$upscope $end
$upscope $end
$scope module cpu_tb $end
$scope module cpu_t $end
$scope module reg_file $end
$var reg 32 $# \REGISTERS[6] [31:0] $end
$upscope $end
$upscope $end
$upscope $end
$scope module cpu_tb $end
$scope module cpu_t $end
$scope module reg_file $end
$var reg 32 %# \REGISTERS[7] [31:0] $end
$upscope $end
$upscope $end
$upscope $end
$scope module cpu_tb $end
$scope module cpu_t $end
$scope module reg_file $end
$var reg 32 &# \REGISTERS[8] [31:0] $end
$upscope $end
$upscope $end
$upscope $end
$scope module cpu_tb $end
$scope module cpu_t $end
$scope module reg_file $end
$var reg 32 '# \REGISTERS[9] [31:0] $end
$upscope $end
$upscope $end
$upscope $end
$scope module cpu_tb $end
$scope module cpu_t $end
$scope module reg_file $end
$var reg 32 (# \REGISTERS[10] [31:0] $end
$upscope $end
$upscope $end
$upscope $end
$scope module cpu_tb $end
$scope module cpu_t $end
$scope module reg_file $end
$var reg 32 )# \REGISTERS[11] [31:0] $end
$upscope $end
$upscope $end
$upscope $end
$scope module cpu_tb $end
$scope module cpu_t $end
$scope module reg_file $end
$var reg 32 *# \REGISTERS[12] [31:0] $end
$upscope $end
$upscope $end
$upscope $end
$scope module cpu_tb $end
$scope module cpu_t $end
$scope module reg_file $end
$var reg 32 +# \REGISTERS[13] [31:0] $end
$upscope $end
$upscope $end
$upscope $end
$scope module cpu_tb $end
$scope module cpu_t $end
$scope module reg_file $end
$var reg 32 ,# \REGISTERS[14] [31:0] $end
$upscope $end
$upscope $end
$upscope $end
$scope module cpu_tb $end
$scope module cpu_t $end
$scope module reg_file $end
$var reg 32 -# \REGISTERS[15] [31:0] $end
$upscope $end
$upscope $end
$upscope $end
$scope module cpu_tb $end
$scope module cpu_t $end
$scope module reg_file $end
$var reg 32 .# \REGISTERS[16] [31:0] $end
$upscope $end
$upscope $end
$upscope $end
$scope module cpu_tb $end
$scope module cpu_t $end
$scope module reg_file $end
$var reg 32 /# \REGISTERS[17] [31:0] $end
$upscope $end
$upscope $end
$upscope $end
$scope module cpu_tb $end
$scope module cpu_t $end
$scope module reg_file $end
$var reg 32 0# \REGISTERS[18] [31:0] $end
$upscope $end
$upscope $end
$upscope $end
$scope module cpu_tb $end
$scope module cpu_t $end
$scope module reg_file $end
$var reg 32 1# \REGISTERS[19] [31:0] $end
$upscope $end
$upscope $end
$upscope $end
$scope module cpu_tb $end
$scope module cpu_t $end
$scope module reg_file $end
$var reg 32 2# \REGISTERS[20] [31:0] $end
$upscope $end
$upscope $end
$upscope $end
$scope module cpu_tb $end
$scope module cpu_t $end
$scope module reg_file $end
$var reg 32 3# \REGISTERS[21] [31:0] $end
$upscope $end
$upscope $end
$upscope $end
$scope module cpu_tb $end
$scope module cpu_t $end
$scope module reg_file $end
$var reg 32 4# \REGISTERS[22] [31:0] $end
$upscope $end
$upscope $end
$upscope $end
$scope module cpu_tb $end
$scope module cpu_t $end
$scope module reg_file $end
$var reg 32 5# \REGISTERS[23] [31:0] $end
$upscope $end
$upscope $end
$upscope $end
$scope module cpu_tb $end
$scope module cpu_t $end
$scope module reg_file $end
$var reg 32 6# \REGISTERS[24] [31:0] $end
$upscope $end
$upscope $end
$upscope $end
$scope module cpu_tb $end
$scope module cpu_t $end
$scope module reg_file $end
$var reg 32 7# \REGISTERS[25] [31:0] $end
$upscope $end
$upscope $end
$upscope $end
$scope module cpu_tb $end
$scope module cpu_t $end
$scope module reg_file $end
$var reg 32 8# \REGISTERS[26] [31:0] $end
$upscope $end
$upscope $end
$upscope $end
$scope module cpu_tb $end
$scope module cpu_t $end
$scope module reg_file $end
$var reg 32 9# \REGISTERS[27] [31:0] $end
$upscope $end
$upscope $end
$upscope $end
$scope module cpu_tb $end
$scope module cpu_t $end
$scope module reg_file $end
$var reg 32 :# \REGISTERS[28] [31:0] $end
$upscope $end
$upscope $end
$upscope $end
$scope module cpu_tb $end
$scope module cpu_t $end
$scope module reg_file $end
$var reg 32 ;# \REGISTERS[29] [31:0] $end
$upscope $end
$upscope $end
$upscope $end
$scope module cpu_tb $end
$scope module cpu_t $end
$scope module reg_file $end
$var reg 32 <# \REGISTERS[30] [31:0] $end
$upscope $end
$upscope $end
$upscope $end
$scope module cpu_tb $end
$scope module cpu_t $end
$scope module reg_file $end
$var reg 32 =# \REGISTERS[31] [31:0] $end
$upscope $end
$upscope $end
$upscope $end
$enddefinitions $end
$comment Show the parameter values. $end
$dumpall
$end
#0
$dumpvars
bx =#
bx <#
bx ;#
bx :#
bx 9#
bx 8#
bx 7#
bx 6#
bx 5#
bx 4#
bx 3#
bx 2#
bx 1#
bx 0#
bx /#
bx .#
bx -#
bx ,#
bx +#
bx *#
bx )#
bx (#
bx '#
bx &#
bx %#
bx $#
bx ##
bx "#
bx !#
bx ~"
bx }"
bx |"
b0 {"
b0 z"
bz y"
b0 x"
b0 w"
b0 v"
b0 u"
b0 t"
b0 s"
b0 r"
b0 q"
b0 p"
b0 o"
b0 n"
bx m"
b100000 l"
bx k"
b0 j"
b0 i"
b0 h"
bx g"
bx f"
b100 e"
b0 d"
b0 c"
b100 b"
bx a"
bx `"
bx _"
b0 ^"
bx ]"
b0 \"
b0 ["
bx Z"
b0 Y"
b0 X"
b0 W"
b0 V"
b0 U"
bz T"
bx S"
b0 R"
b0 Q"
b0 P"
b0 O"
b0 N"
b0 M"
b0 L"
b0 K"
b0 J"
b0 I"
b0 H"
b0 G"
b0 F"
b0 E"
b0 D"
b0 C"
b0 B"
b0 A"
b0 @"
bx ?"
bx >"
bx ="
bx <"
bx ;"
b0 :"
bx 9"
bx 8"
b0 7"
b0 6"
b0 5"
b0 4"
b0 3"
b0 2"
b0 1"
b0 0"
b0 /"
b0 ."
b0 -"
b0 ,"
b0 +"
bx *"
b0 )"
b0 ("
b0 '"
bx &"
b0 %"
b0 $"
bx #"
bx ""
bx !"
bx ~
bx }
bx |
b0 {
b0 z
b0 y
b0 x
b0 w
b0 v
bx u
bx t
b0 s
bx r
b0 q
bx p
bx o
bx n
bx m
bx l
bx k
bx j
bx i
bx h
bx g
bx f
bx e
bx d
bx c
bx b
bx a
bx `
bx _
bx ^
b0 ]
bx \
b0 [
b0 Z
bx Y
b0 X
bx W
b0 V
bz U
b0 T
b0 S
b0 R
bx Q
b0 P
b0 O
b0 N
b0 M
b0 L
b0 K
bx J
b0 I
b0 H
bx G
b0 F
0E
xD
b0 C
b0 B
bx A
b0 @
b0 ?
bx >
bx =
b0 <
b100 ;
0:
09
bx 8
07
x6
05
04
b0 3
bx 2
b0 1
b0 0
b0 /
bx .
b0 -
bx ,
0+
b100000 *
1)
0(
b0 '
b0 &
bz %
b0 $
b0 #
b0 "
b0 !
$end
#1000
b0 =#
b0 <#
b0 ;#
b0 :#
b0 9#
b0 8#
b0 7#
b0 6#
b0 5#
b0 4#
b0 3#
b0 2#
b0 1#
b0 0#
b0 /#
b0 .#
b0 -#
b0 ,#
b0 +#
b0 *#
b0 )#
b0 (#
b0 '#
b0 &#
b0 %#
b0 $#
b0 ##
b0 "#
b0 !#
b0 ~"
b0 }"
b0 |"
b0 ^
b0 r
b0 u
b0 8
b0 &"
b0 k"
b100 >
b100 ]"
b100 `"
b100 =
b100 S"
b100 _"
#2000
b0 g
b0 f
b0 j
b100 A
b100 Z"
b100 a"
b0 _
b0 Q
b0 !"
b0 m"
b0 G
b0 }
b0 <"
b0 J
b0 ~
b0 ;"
b1 2
b1 |
b1 ="
b0 W
b0 ""
b0 9"
#3000
1+
b0 \
b0 t
b0 *"
b0 .
b0 ?"
b0 f"
b0 ,
b0 >"
b0 g"
b0 h
b0 i
b0 c
b0 d
b0 p
16
0D
b0 Y
b0 #"
b0 8"
#4000
b0 e
1(
b0 b
b0 a
b0 `
#5000
b0 k
b0 l
b0 n
b0 o
b0 m
#8000
b10100000000000010010011 $
b10100000000000010010011 N
b10100000000000010010011 M"
b10100000000000010010011 {"
0(
0)
#12000
b101 R
b101 A"
b101 t"
b101 r"
b1 p"
b100000000000 s"
b10100000000000000000000 o"
b100000000100 q"
b1 :"
b1010000000000001 n"
b10011 {
b101 i"
b10100000000000010010011 O
b10100000000000010010011 N"
17
b1 3
b1 +"
b1 K"
bz T
bz '"
bz V"
b100 <
b100 )"
b100 X"
1(
#13000
b100 8
b100 &"
b100 k"
#14000
b100 !
b100 ?
b100 L"
b100 ["
b100 \"
b100 z"
#15000
b1000 >
b1000 ]"
b1000 `"
1D
#16000
b101000000000000100010011 $
b101000000000000100010011 N
b101000000000000100010011 M"
b101000000000000100010011 {"
b1000 A
b1000 Z"
b1000 a"
0(
#20000
b1010 R
b1010 A"
b1010 t"
b1010 r"
b10 p"
b10 s"
b101000000000000000000000 o"
b1010 q"
b10 :"
b10100000000000010 n"
b1010 i"
15
b1 1
b1 7"
b1 R"
1E
b101 S
b101 v
b101 /"
b101 E"
b1 P
b1 0"
b1 D"
b100 B
b100 @"
b100 O"
b101000000000000100010011 O
b101000000000000100010011 N"
1(
#21000
b101 ^
b101 r
b101 u
#22000
b1000 !
b1000 ?
b1000 L"
b1000 ["
b1000 \"
b1000 z"
#23000
0+
b101 \
b101 t
b101 *"
b1100 >
b1100 ]"
b1100 `"
b1 h
b1 i
b101 c
b101 d
b101 p
#24000
b1000001000000110110011 $
b1000001000000110110011 N
b1000001000000110110011 M"
b1000001000000110110011 {"
b1100 A
b1100 Z"
b1100 a"
b11111111111111111111111111111011 e
0(
#28000
b10 R
b10 A"
b10 t"
b10 r"
b11 p"
b100000000010 s"
b1000001000000000000000 o"
b1000000000000010 q"
b11 :"
b100000100000011 n"
b110011 {
b10 i"
b1 h"
b1000 B
b1000 @"
b1000 O"
b1000001000000110110011 O
b1000001000000110110011 N"
b1010 S
b1010 v
b1010 /"
b1010 E"
b100 C
b100 ,"
b100 H"
b10 P
b10 0"
b10 D"
b1001 ;
b1001 b"
b1001 e"
b101 &
b101 V
b101 3"
b101 d"
b101 v"
b1 M
b1 2"
b1 Q"
b101 '
b101 [
b101 1"
b101 P"
b101 u"
14
b1 0
b1 %"
b1 Y"
1(
#29000
b1010 ^
b1010 r
b1010 u
b0 8
b0 &"
b0 k"
#30000
b1100 !
b1100 ?
b1100 L"
b1100 ["
b1100 \"
b1100 z"
#31000
b1010 \
b1010 t
b1010 *"
b10000 >
b10000 ]"
b10000 `"
b1010 c
b1010 d
b1010 p
0D
#32000
b1000000000100010000001000110011 $
b1000000000100010000001000110011 N
b1000000000100010000001000110011 M"
b1000000000100010000001000110011 {"
b10000 A
b10000 Z"
b10000 a"
b11111111111111111111111111110110 e
0(
#36000
b10000000001 R
b10000000001 A"
b10000000001 t"
b10000000001 r"
b10000000100 p"
b10000000100 s"
b1000000000100010000000000000000 o"
b10000110000000000 q"
b100 :"
b100000000010001000000100 n"
b100000 z
b1 i"
b10 h"
b1 L
b1 W"
b1 j"
b101 Z
b101 ("
b101 U"
b1010 &
b1010 V
b1010 3"
b1010 d"
b1010 v"
b10010 ;
b10010 b"
b10010 e"
b100 @
b100 6"
b100 ^"
b100 c"
b10 M
b10 2"
b10 Q"
b1010 '
b1010 [
b1010 1"
b1010 P"
b1010 u"
0E
b10 S
b10 v
b10 /"
b10 E"
b1000 C
b1000 ,"
b1000 H"
b11 P
b11 0"
b11 D"
b1100 B
b1100 @"
b1100 O"
b1000000000100010000001000110011 O
b1000000000100010000001000110011 N"
1(
#37000
b101 8
b101 &"
b101 k"
b0 ^
b0 r
b0 u
b1000 =
b1000 S"
b1000 _"
#38000
b10000 !
b10000 ?
b10000 L"
b10000 ["
b10000 \"
b10000 z"
#39000
1+
b0 \
b0 t
b0 *"
b10100 >
b10100 ]"
b10100 `"
b0 h
b0 i
b0 c
b0 d
b0 p
b10000 Y
b10000 #"
b10000 8"
#40000
b10001000001000001010110011 $
b10001000001000001010110011 N
b10001000001000001010110011 M"
b10001000001000001010110011 {"
b10100 A
b10100 Z"
b10100 a"
b0 e
0(
#41000
b101 }"
#43000
b101 ,
b101 >"
b101 g"
#44000
b100010 R
b100010 A"
b100010 t"
b100010 r"
b100101 p"
b100000100100 s"
b10001000001000000000000000 o"
b1000000000100010 q"
b101 :"
b1000100000100000101 n"
b1 z
b10 i"
b1 h"
b10000 B
b10000 @"
b10000 O"
b10001000001000001010110011 O
b10001000001000001010110011 N"
b10000 ]
b10000 q
b10000 B"
b10000000001 S
b10000000001 v
b10000000001 /"
b10000000001 E"
b101 -
b101 w
b101 J"
b1100 C
b1100 ,"
b1100 H"
b100 P
b100 0"
b100 D"
b10 &
b10 V
b10 3"
b10 d"
b10 v"
b1110 ;
b1110 b"
b1110 e"
b1000 @
b1000 6"
b1000 ^"
b1000 c"
b11 M
b11 2"
b11 Q"
b0 '
b0 [
b0 1"
b0 P"
b0 u"
b1000 <
b1000 )"
b1000 X"
b10 L
b10 W"
b10 j"
b1010 Z
b1010 ("
b1010 U"
1(
#45000
b1010 8
b1010 &"
b1010 k"
b101 ^
b101 r
b101 u
b1100 =
b1100 S"
b1100 _"
#46000
b10100 !
b10100 ?
b10100 L"
b10100 ["
b10100 \"
b10100 z"
b0 ,
b0 >"
b0 g"
b101 .
b101 ?"
b101 f"
#47000
b11000 >
b11000 ]"
b11000 `"
b1 h
b1 i
b101 c
b101 d
b101 p
b1000 Y
b1000 #"
b1000 8"
#48000
b10000100010100001100110011 $
b10000100010100001100110011 N
b10000100010100001100110011 M"
b10000100010100001100110011 {"
0+
b11111111111111111111111111111011 \
b11111111111111111111111111111011 t
b11111111111111111111111111111011 *"
b11000 A
b11000 Z"
b11000 a"
b11111111111111111111111111111011 e
0(
#49000
b1010 ~"
#51000
b1010 ,
b1010 >"
b1010 g"
#52000
b100001 R
b100001 A"
b100001 t"
b100001 r"
b100110 p"
b100110 s"
b10000100010100000000000000 o"
b10100100000100000 q"
1+
b0 \
b0 t
b0 *"
b110 :"
b1000010001010000110 n"
b100 y
b1 i"
b10 h"
b1100 <
b1100 )"
b1100 X"
b11 L
b11 W"
b11 j"
b0 Z
b0 ("
b0 U"
b10000000001 &
b10000000001 V
b10000000001 3"
b10000000001 d"
b10000000001 v"
b10000010001 ;
b10000010001 b"
b10000010001 e"
b1100 @
b1100 6"
b1100 ^"
b1100 c"
b100 M
b100 2"
b100 Q"
b11111111111111111111111111111011 '
b11111111111111111111111111111011 [
b11111111111111111111111111111011 1"
b11111111111111111111111111111011 P"
b11111111111111111111111111111011 u"
b1000 ]
b1000 q
b1000 B"
b100010 S
b100010 v
b100010 /"
b100010 E"
b1010 -
b1010 w
b1010 J"
b101 /
b101 s
b101 I"
b10000 C
b10000 ,"
b10000 H"
b101 P
b101 0"
b101 D"
b10100 B
b10100 @"
b10100 O"
b10000100010100001100110011 O
b10000100010100001100110011 N"
1(
#53000
b0 8
b0 &"
b0 k"
b1010 ^
b1010 r
b1010 u
b10000 =
b10000 S"
b10000 _"
b10100000 j
#54000
b11000 !
b11000 ?
b11000 L"
b11000 ["
b11000 \"
b11000 z"
b1010000000000 j
b101 ,
b101 >"
b101 g"
b1010 .
b1010 ?"
b1010 f"
#55000
b11100 >
b11100 ]"
b11100 `"
b1111 c
b1111 d
b1111 p
b1100 Y
b1100 #"
b1100 8"
#56000
b10000100010101001110110011 $
b10000100010101001110110011 N
b10000100010101001110110011 M"
b10000100010101001110110011 {"
b11100 A
b11100 Z"
b11100 a"
0(
#57000
b0 !#
0+
b110010 \
b110010 t
b110010 *"
b101 k
b101 l
b110010 m
#60000
b100111 p"
b100000100110 s"
b10000100010101000000000000 o"
b10101100000100000 q"
b111 :"
b1000010001010100111 n"
b101 y
1+
b0 \
b0 t
b0 *"
b11000 B
b11000 @"
b11000 O"
b10000100010101001110110011 O
b10000100010101001110110011 N"
b1100 ]
b1100 q
b1100 B"
b100001 S
b100001 v
b100001 /"
b100001 E"
b101 -
b101 w
b101 J"
b1010 /
b1010 s
b1010 I"
b10100 C
b10100 ,"
b10100 H"
b110 P
b110 0"
b110 D"
b100010 &
b100010 V
b100010 3"
b100010 d"
b100010 v"
b110110 ;
b110110 b"
b110110 e"
b10000 @
b10000 6"
b10000 ^"
b10000 c"
b101 M
b101 2"
b101 Q"
b110010 '
b110010 [
b110010 1"
b110010 P"
b110010 u"
b10000 <
b10000 )"
b10000 X"
b100 L
b100 W"
b100 j"
b11111111111111111111111111111011 Z
b11111111111111111111111111111011 ("
b11111111111111111111111111111011 U"
1(
#61000
b11111111111111111111111111111011 8
b11111111111111111111111111111011 &"
b11111111111111111111111111111011 k"
b101 ^
b101 r
b101 u
b10100000000000 j
b10100 =
b10100 S"
b10100 _"
#62000
b11100 !
b11100 ?
b11100 L"
b11100 ["
b11100 \"
b11100 z"
b101000000 j
b0 h
b0 i
#63000
b100000 >
b100000 ]"
b100000 `"
b1101 Y
b1101 #"
b1101 8"
#64000
b10000010011 $
b10000010011 N
b10000010011 M"
b10000010011 {"
b100000 A
b100000 Z"
b100000 a"
b101 e
b0 k
b0 l
0(
#65000
b11111111111111111111111111111011 "#
0+
b10 \
b10 t
b10 *"
b10 n
b10 o
#68000
b0 R
b0 A"
b0 t"
b0 r"
b1000 p"
b1000 s"
b0 o"
b0 q"
b1000 :"
b1000 n"
b0 z
b0 y
b10011 {
b0 i"
b0 h"
b10100 <
b10100 )"
b10100 X"
b101 L
b101 W"
b101 j"
b110010 Z
b110010 ("
b110010 U"
b100001 &
b100001 V
b100001 3"
b100001 d"
b100001 v"
b111001 ;
b111001 b"
b111001 e"
b10100 @
b10100 6"
b10100 ^"
b10100 c"
b110 M
b110 2"
b110 Q"
b10 '
b10 [
b10 1"
b10 P"
b10 u"
b1101 ]
b1101 q
b1101 B"
b11000 C
b11000 ,"
b11000 H"
b111 P
b111 0"
b111 D"
b11100 B
b11100 @"
b11100 O"
b10000010011 O
b10000010011 N"
1(
#69000
b110010 8
b110010 &"
b110010 k"
b11000 =
b11000 S"
b11000 _"
#70000
b100000 !
b100000 ?
b100000 L"
b100000 ["
b100000 \"
b100000 z"
b0 ,
b0 >"
b0 g"
b0 .
b0 ?"
b0 f"
#71000
b100100 >
b100100 ]"
b100100 `"
1D
b0 Y
b0 #"
b0 8"
