cpu/hazard_test_with_memory.vcd
$date
	Fri Jul 04 05:59:48 2025
$end
$version
	Icarus Verilog
$end
$timescale
	1ps
$end
$scope module hazard_test_with_memory $end
$var wire 32 ! dmem_data_out [31:0] $end
$var wire 32 " instr_if [31:0] $end
$var wire 1 # stall_pipeline $end
$var wire 32 $ rt_data_forwarded_id [31:0] $end
$var wire 32 % rs_data_forwarded_id [31:0] $end
$var wire 5 & rs2_id [4:0] $end
$var wire 5 ' rs1_id [4:0] $end
$var wire 32 ( pc_out [31:0] $end
$var wire 1 ) pc_enable $end
$var wire 2 * mem_write_ma [1:0] $end
$var wire 2 + mem_read_ma [1:0] $end
$var wire 1 , if_id_enable $end
$var wire 1 - id_ex_enable $end
$var wire 2 . forward_rs2 [1:0] $end
$var wire 2 / forward_rs1 [1:0] $end
$var wire 1 0 flush_if_id $end
$var wire 1 1 flush_id_ex $end
$var wire 32 2 dmem_data_in [31:0] $end
$var wire 32 3 alu_result_ma [31:0] $end
$var reg 1 4 clk $end
$var reg 1 5 reset $end
$var integer 32 6 i [31:0] $end
$scope function decode_instruction $end
$var reg 32 7 instr [31:0] $end
$upscope $end
$scope function get_forwarding_source $end
$var reg 2 8 forward_signal [1:0] $end
$upscope $end
$scope function get_instruction_name $end
$var reg 32 9 instr [31:0] $end
$upscope $end
$scope function get_phase_description $end
$var reg 32 : pc [31:0] $end
$upscope $end
$scope module cpu_inst $end
$var wire 1 4 clk $end
$var wire 32 ; dmem_data_out [31:0] $end
$var wire 1 1 flush_id_ex $end
$var wire 1 0 flush_if_id $end
$var wire 2 < forward_rs1 [1:0] $end
$var wire 2 = forward_rs2 [1:0] $end
$var wire 1 - id_ex_enable $end
$var wire 1 , if_id_enable $end
$var wire 32 > instr_if [31:0] $end
$var wire 1 ? is_load_id $end
$var wire 1 ) pc_enable $end
$var wire 1 5 reset $end
$var wire 5 @ rs1_id [4:0] $end
$var wire 5 A rs2_id [4:0] $end
$var wire 32 B rs_data_forwarded_id [31:0] $end
$var wire 32 C rt_data_forwarded_id [31:0] $end
$var wire 1 # stall_pipeline $end
$var wire 1 D zero $end
$var wire 1 E stall_pipeline_internal $end
$var wire 32 F rt_data_id [31:0] $end
$var wire 32 G rt_data_forwarded_id_internal [31:0] $end
$var wire 32 H rt_data_ex [31:0] $end
$var wire 32 I rs_data_id [31:0] $end
$var wire 32 J rs_data_forwarded_id_internal [31:0] $end
$var wire 32 K rs_data_ex [31:0] $end
$var wire 5 L rs2_id_internal [4:0] $end
$var wire 5 M rs1_id_internal [4:0] $end
$var wire 2 N reg_write_select_wb [1:0] $end
$var wire 2 O reg_write_select_ma [1:0] $end
$var wire 2 P reg_write_select_id [1:0] $end
$var wire 2 Q reg_write_select_ex [1:0] $end
$var wire 1 R reg_write_enable_wb $end
$var wire 1 S reg_write_enable_ma $end
$var wire 1 T reg_write_enable_id $end
$var wire 1 U reg_write_enable_ex $end
$var wire 32 V reg_write_data_wb [31:0] $end
$var wire 1 W pc_sel_ma $end
$var wire 1 X pc_sel_ex $end
$var wire 32 Y pc_plus_offset_ma [31:0] $end
$var wire 32 Z pc_plus_4_wb [31:0] $end
$var wire 32 [ pc_plus_4_ma [31:0] $end
$var wire 32 \ pc_plus_4_if [31:0] $end
$var wire 32 ] pc_out [31:0] $end
$var wire 32 ^ pc_ma [31:0] $end
$var wire 32 _ pc_initial_if [31:0] $end
$var wire 32 ` pc_id [31:0] $end
$var wire 32 a pc_ex [31:0] $end
$var wire 1 b pc_enable_internal $end
$var wire 1 c op_sel_id $end
$var wire 1 d op_sel_ex $end
$var wire 2 e mem_write_ma [1:0] $end
$var wire 2 f mem_write_id [1:0] $end
$var wire 2 g mem_write_ex [1:0] $end
$var wire 2 h mem_read_ma [1:0] $end
$var wire 2 i mem_read_id [1:0] $end
$var wire 2 j mem_read_ex [1:0] $end
$var wire 1 k is_load_ex $end
$var wire 5 l instr_wb [4:0] $end
$var wire 5 m instr_ma [4:0] $end
$var wire 32 n instr_id [31:0] $end
$var wire 5 o instr_ex [4:0] $end
$var wire 3 p imm_sel_id [2:0] $end
$var wire 32 q imm_id [31:0] $end
$var wire 32 r imm_ex [31:0] $end
$var wire 1 s if_id_enable_internal $end
$var wire 1 t id_ex_enable_internal $end
$var wire 2 u forward_rs2_internal [1:0] $end
$var wire 2 v forward_rs1_internal [1:0] $end
$var wire 1 w flush_if_id_internal $end
$var wire 1 x flush_id_ex_internal $end
$var wire 32 y dmem_out_wb [31:0] $end
$var wire 32 z dmem_data_in [31:0] $end
$var wire 2 { branch_jump_id [1:0] $end
$var wire 2 | branch_jump_ex [1:0] $end
$var wire 5 } aluop_id [4:0] $end
$var wire 32 ~ alu_result_wb [31:0] $end
$var wire 32 !" alu_result_ma [31:0] $end
$var wire 32 "" alu_result_ex [31:0] $end
$var wire 5 #" alu_op_ex [4:0] $end
$var wire 32 $" alu_input2_ex [31:0] $end
$scope module alu $end
$var wire 32 %" andData [31:0] $end
$var wire 32 &" mulhData [31:0] $end
$var wire 32 '" mulhsuData [31:0] $end
$var wire 32 (" mulhuData [31:0] $end
$var wire 32 )" orData [31:0] $end
$var wire 32 *" xorData [31:0] $end
$var wire 32 +" subData [31:0] $end
$var wire 32 ," srlData [31:0] $end
$var wire 32 -" sraData [31:0] $end
$var wire 32 ." sltuData [31:0] $end
$var wire 32 /" sltData [31:0] $end
$var wire 32 0" sllData [31:0] $end
$var wire 32 1" remuData [31:0] $end
$var wire 32 2" remData [31:0] $end
$var wire 32 3" mulData [31:0] $end
$var wire 32 4" divuData [31:0] $end
$var wire 32 5" divData [31:0] $end
$var wire 32 6" addData [31:0] $end
$var wire 5 7" SELECT [4:0] $end
$var wire 32 8" DATA2 [31:0] $end
$var wire 32 9" DATA1 [31:0] $end
$var reg 32 :" RESULT [31:0] $end
$var reg 1 D ZERO $end
$upscope $end
$scope module alu_input2_mux $end
$var wire 1 d sel $end
$var wire 32 ;" out [31:0] $end
$var wire 32 <" in1 [31:0] $end
$var wire 32 =" in0 [31:0] $end
$upscope $end
$scope module branch_selector $end
$var wire 1 D ZERO $end
$var wire 2 >" BRANCH_SEL [1:0] $end
$var reg 1 X PC_SEL $end
$upscope $end
$scope module control_unit $end
$var wire 3 ?" funct3 [2:0] $end
$var wire 7 @" funct7 [6:0] $end
$var wire 7 A" opcode [6:0] $end
$var wire 2 B" write_back_sel [1:0] $end
$var wire 1 c use_imm $end
$var wire 1 T reg_write_en $end
$var wire 2 C" mem_write [1:0] $end
$var wire 2 D" mem_read [1:0] $end
$var wire 3 E" imm_sel [2:0] $end
$var wire 2 F" branch_sel [1:0] $end
$var wire 5 G" alu_op [4:0] $end
$upscope $end
$scope module data_mux $end
$var wire 32 H" in3 [31:0] $end
$var wire 2 I" sel [1:0] $end
$var wire 32 J" out [31:0] $end
$var wire 32 K" in2 [31:0] $end
$var wire 32 L" in1 [31:0] $end
$var wire 32 M" in0 [31:0] $end
$upscope $end
$scope module ex_ma_reg $end
$var wire 32 N" ALU_RESULT [31:0] $end
$var wire 1 4 CLK $end
$var wire 1 X PC_SEL $end
$var wire 1 5 RESET $end
$var wire 2 O" REG_WRITE_SEL [1:0] $end
$var wire 1 U REG_WRITE_ENABLE $end
$var wire 32 P" PC_PLUS_4 [31:0] $end
$var wire 2 Q" MEM_WRITE [1:0] $end
$var wire 2 R" MEM_READ [1:0] $end
$var wire 32 S" IMMEDIATE [31:0] $end
$var wire 5 T" DEST_REG [4:0] $end
$var reg 32 U" OUT_ALU_RESULT [31:0] $end
$var reg 5 V" OUT_DEST_REG [4:0] $end
$var reg 32 W" OUT_IMMEDIATE [31:0] $end
$var reg 2 X" OUT_MEM_READ [1:0] $end
$var reg 2 Y" OUT_MEM_WRITE [1:0] $end
$var reg 32 Z" OUT_PC_PLUS_4 [31:0] $end
$var reg 1 W OUT_PC_SEL $end
$var reg 1 S OUT_REG_WRITE_ENABLE $end
$var reg 2 [" OUT_REG_WRITE_SEL [1:0] $end
$upscope $end
$scope module forwarding_unit $end
$var wire 32 \" alu_result_ex [31:0] $end
$var wire 32 ]" alu_result_ma [31:0] $end
$var wire 32 ^" reg_write_data_wb [31:0] $end
$var wire 32 _" rs2_data_id [31:0] $end
$var wire 32 `" rs1_data_id [31:0] $end
$var wire 2 a" forward_rs2 [1:0] $end
$var wire 2 b" forward_rs1 [1:0] $end
$var reg 32 c" rs1_data_forwarded [31:0] $end
$var reg 32 d" rs2_data_forwarded [31:0] $end
$upscope $end
$scope module hazard_control_unit $end
$var wire 1 X pc_sel_ex $end
$var wire 1 E stall_pipeline $end
$var wire 2 e" branch_jump_ex [1:0] $end
$var reg 1 x flush_id_ex $end
$var reg 1 w flush_if_id $end
$var reg 1 t id_ex_enable $end
$var reg 1 s if_id_enable $end
$var reg 1 b pc_enable $end
$upscope $end
$scope module hazard_detection_unit $end
$var wire 5 f" rd_ma [4:0] $end
$var wire 1 S reg_write_enable_ma $end
$var wire 5 g" rs1_id [4:0] $end
$var wire 5 h" rs2_id [4:0] $end
$var wire 1 R reg_write_enable_wb $end
$var wire 1 U reg_write_enable_ex $end
$var wire 5 i" rd_wb [4:0] $end
$var wire 5 j" rd_ex [4:0] $end
$var wire 1 k is_load_ex $end
$var reg 2 k" forward_rs1 [1:0] $end
$var reg 2 l" forward_rs2 [1:0] $end
$var reg 1 E stall_pipeline $end
$scope function check_hazard $end
$upscope $end
$upscope $end
$scope module id_ex_reg $end
$var wire 5 m" ALU_OP [4:0] $end
$var wire 2 n" BRANCH_JUMP [1:0] $end
$var wire 1 4 CLK $end
$var wire 5 o" DEST_REG [4:0] $end
$var wire 1 t ENABLE $end
$var wire 1 x FLUSH $end
$var wire 1 ? IS_LOAD $end
$var wire 2 p" MEM_READ [1:0] $end
$var wire 2 q" MEM_WRITE [1:0] $end
$var wire 1 c OP_SEL $end
$var wire 32 r" READ_DATA1 [31:0] $end
$var wire 32 s" READ_DATA2 [31:0] $end
$var wire 1 T REG_WRITE_ENABLE $end
$var wire 2 t" REG_WRITE_SEL [1:0] $end
$var wire 1 5 RESET $end
$var wire 32 u" PC_PLUS_4 [31:0] $end
$var wire 32 v" IMMEDIATE [31:0] $end
$var reg 5 w" OUT_ALU_OP [4:0] $end
$var reg 2 x" OUT_BRANCH_JUMP [1:0] $end
$var reg 5 y" OUT_DEST_REG [4:0] $end
$var reg 32 z" OUT_IMMEDIATE [31:0] $end
$var reg 1 k OUT_IS_LOAD $end
$var reg 2 {" OUT_MEM_READ [1:0] $end
$var reg 2 |" OUT_MEM_WRITE [1:0] $end
$var reg 1 d OUT_OP_SEL $end
$var reg 32 }" OUT_PC_PLUS_4 [31:0] $end
$var reg 32 ~" OUT_READ_DATA1 [31:0] $end
$var reg 32 !# OUT_READ_DATA2 [31:0] $end
$var reg 1 U OUT_REG_WRITE_ENABLE $end
$var reg 2 "# OUT_REG_WRITE_SEL [1:0] $end
$upscope $end
$scope module if_id_reg $end
$var wire 1 4 CLK $end
$var wire 1 s ENABLE $end
$var wire 1 w FLUSH $end
$var wire 32 ## INSTRUCTION [31:0] $end
$var wire 1 5 RESET $end
$var wire 32 $# PC_PLUS_4 [31:0] $end
$var reg 32 %# OUT_INSTRUCTION [31:0] $end
$var reg 32 &# OUT_PC_PLUS_4 [31:0] $end
$upscope $end
$scope module ma_wb_reg $end
$var wire 32 '# ALU_RESULT [31:0] $end
$var wire 1 4 CLK $end
$var wire 32 (# DATA_OUT [31:0] $end
$var wire 5 )# DEST_REG [4:0] $end
$var wire 1 S REG_WRITE_ENABLE $end
$var wire 2 *# REG_WRITE_SEL [1:0] $end
$var wire 1 5 RESET $end
$var wire 32 +# PC_PLUS_4 [31:0] $end
$var reg 32 ,# OUT_ALU_RESULT [31:0] $end
$var reg 32 -# OUT_DATA_OUT [31:0] $end
$var reg 5 .# OUT_DEST_REG [4:0] $end
$var reg 32 /# OUT_PC_PLUS_4 [31:0] $end
$var reg 1 R OUT_REG_WRITE_ENABLE $end
$var reg 2 0# OUT_REG_WRITE_SEL [1:0] $end
$upscope $end
$scope module pc $end
$var wire 1 4 clk $end
$var wire 1 b enable $end
$var wire 1 5 reset $end
$var wire 32 1# pc_in [31:0] $end
$var reg 32 2# pc_out [31:0] $end
$upscope $end
$scope module pc_adder $end
$var wire 32 3# pc_in [31:0] $end
$var wire 32 4# pc_out [31:0] $end
$upscope $end
$scope module pc_adder_ma $end
$var wire 32 5# pc_in [31:0] $end
$var wire 32 6# pc_out [31:0] $end
$upscope $end
$scope module pc_mux $end
$var wire 32 7# in0 [31:0] $end
$var wire 1 W sel $end
$var wire 32 8# out [31:0] $end
$var wire 32 9# in1 [31:0] $end
$upscope $end
$scope module pc_offset_adder $end
$var wire 32 :# a [31:0] $end
$var wire 32 ;# b [31:0] $end
$var wire 32 <# sum [31:0] $end
$upscope $end
$scope module reg_file $end
$var wire 1 4 CLK $end
$var wire 32 =# DATA_OUT1 [31:0] $end
$var wire 32 ># DATA_OUT2 [31:0] $end
$var wire 5 ?# OUT_ADDR1 [4:0] $end
$var wire 5 @# OUT_ADDR2 [4:0] $end
$var wire 1 5 RESET $end
$var wire 5 A# WRITE_ADDR [4:0] $end
$var wire 32 B# WRITE_DATA [31:0] $end
$var wire 1 R WRITE_ENABLE $end
$var integer 32 C# i [31:0] $end
$upscope $end
$scope module sign_extender $end
$var wire 3 D# imm_sel [2:0] $end
$var wire 25 E# instr_25 [24:0] $end
$var wire 32 F# imm_u [31:0] $end
$var wire 12 G# imm_s [11:0] $end
$var wire 21 H# imm_j [20:0] $end
$var wire 12 I# imm_i [11:0] $end
$var wire 13 J# imm_b [12:0] $end
$var reg 32 K# imm_out [31:0] $end
$upscope $end
$upscope $end
$upscope $end
$scope module hazard_test_with_memory $end
$scope module cpu_inst $end
$scope module reg_file $end
$var reg 32 L# \REGISTERS[0] [31:0] $end
$upscope $end
$upscope $end
$upscope $end
$scope module hazard_test_with_memory $end
$scope module cpu_inst $end
$scope module reg_file $end
$var reg 32 M# \REGISTERS[1] [31:0] $end
$upscope $end
$upscope $end
$upscope $end
$scope module hazard_test_with_memory $end
$scope module cpu_inst $end
$scope module reg_file $end
$var reg 32 N# \REGISTERS[2] [31:0] $end
$upscope $end
$upscope $end
$upscope $end
$scope module hazard_test_with_memory $end
$scope module cpu_inst $end
$scope module reg_file $end
$var reg 32 O# \REGISTERS[3] [31:0] $end
$upscope $end
$upscope $end
$upscope $end
$scope module hazard_test_with_memory $end
$scope module cpu_inst $end
$scope module reg_file $end
$var reg 32 P# \REGISTERS[4] [31:0] $end
$upscope $end
$upscope $end
$upscope $end
$scope module hazard_test_with_memory $end
$scope module cpu_inst $end
$scope module reg_file $end
$var reg 32 Q# \REGISTERS[5] [31:0] $end
$upscope $end
$upscope $end
$upscope $end
$scope module hazard_test_with_memory $end
$scope module cpu_inst $end
$scope module reg_file $end
$var reg 32 R# \REGISTERS[6] [31:0] $end
$upscope $end
$upscope $end
$upscope $end
$scope module hazard_test_with_memory $end
$scope module cpu_inst $end
$scope module reg_file $end
$var reg 32 S# \REGISTERS[7] [31:0] $end
$upscope $end
$upscope $end
$upscope $end
$scope module hazard_test_with_memory $end
$scope module cpu_inst $end
$scope module reg_file $end
$var reg 32 T# \REGISTERS[8] [31:0] $end
$upscope $end
$upscope $end
$upscope $end
$scope module hazard_test_with_memory $end
$scope module cpu_inst $end
$scope module reg_file $end
$var reg 32 U# \REGISTERS[9] [31:0] $end
$upscope $end
$upscope $end
$upscope $end
$scope module hazard_test_with_memory $end
$scope module cpu_inst $end
$scope module reg_file $end
$var reg 32 V# \REGISTERS[10] [31:0] $end
$upscope $end
$upscope $end
$upscope $end
$scope module hazard_test_with_memory $end
$scope module cpu_inst $end
$scope module reg_file $end
$var reg 32 W# \REGISTERS[11] [31:0] $end
$upscope $end
$upscope $end
$upscope $end
$scope module hazard_test_with_memory $end
$scope module cpu_inst $end
$scope module reg_file $end
$var reg 32 X# \REGISTERS[12] [31:0] $end
$upscope $end
$upscope $end
$upscope $end
$scope module hazard_test_with_memory $end
$scope module cpu_inst $end
$scope module reg_file $end
$var reg 32 Y# \REGISTERS[13] [31:0] $end
$upscope $end
$upscope $end
$upscope $end
$scope module hazard_test_with_memory $end
$scope module cpu_inst $end
$scope module reg_file $end
$var reg 32 Z# \REGISTERS[14] [31:0] $end
$upscope $end
$upscope $end
$upscope $end
$scope module hazard_test_with_memory $end
$scope module cpu_inst $end
$scope module reg_file $end
$var reg 32 [# \REGISTERS[15] [31:0] $end
$upscope $end
$upscope $end
$upscope $end
$scope module hazard_test_with_memory $end
$scope module cpu_inst $end
$scope module reg_file $end
$var reg 32 \# \REGISTERS[16] [31:0] $end
$upscope $end
$upscope $end
$upscope $end
$scope module hazard_test_with_memory $end
$scope module cpu_inst $end
$scope module reg_file $end
$var reg 32 ]# \REGISTERS[17] [31:0] $end
$upscope $end
$upscope $end
$upscope $end
$scope module hazard_test_with_memory $end
$scope module cpu_inst $end
$scope module reg_file $end
$var reg 32 ^# \REGISTERS[18] [31:0] $end
$upscope $end
$upscope $end
$upscope $end
$scope module hazard_test_with_memory $end
$scope module cpu_inst $end
$scope module reg_file $end
$var reg 32 _# \REGISTERS[19] [31:0] $end
$upscope $end
$upscope $end
$upscope $end
$scope module hazard_test_with_memory $end
$scope module cpu_inst $end
$scope module reg_file $end
$var reg 32 `# \REGISTERS[20] [31:0] $end
$upscope $end
$upscope $end
$upscope $end
$scope module hazard_test_with_memory $end
$scope module cpu_inst $end
$scope module reg_file $end
$var reg 32 a# \REGISTERS[21] [31:0] $end
$upscope $end
$upscope $end
$upscope $end
$scope module hazard_test_with_memory $end
$scope module cpu_inst $end
$scope module reg_file $end
$var reg 32 b# \REGISTERS[22] [31:0] $end
$upscope $end
$upscope $end
$upscope $end
$scope module hazard_test_with_memory $end
$scope module cpu_inst $end
$scope module reg_file $end
$var reg 32 c# \REGISTERS[23] [31:0] $end
$upscope $end
$upscope $end
$upscope $end
$scope module hazard_test_with_memory $end
$scope module cpu_inst $end
$scope module reg_file $end
$var reg 32 d# \REGISTERS[24] [31:0] $end
$upscope $end
$upscope $end
$upscope $end
$scope module hazard_test_with_memory $end
$scope module cpu_inst $end
$scope module reg_file $end
$var reg 32 e# \REGISTERS[25] [31:0] $end
$upscope $end
$upscope $end
$upscope $end
$scope module hazard_test_with_memory $end
$scope module cpu_inst $end
$scope module reg_file $end
$var reg 32 f# \REGISTERS[26] [31:0] $end
$upscope $end
$upscope $end
$upscope $end
$scope module hazard_test_with_memory $end
$scope module cpu_inst $end
$scope module reg_file $end
$var reg 32 g# \REGISTERS[27] [31:0] $end
$upscope $end
$upscope $end
$upscope $end
$scope module hazard_test_with_memory $end
$scope module cpu_inst $end
$scope module reg_file $end
$var reg 32 h# \REGISTERS[28] [31:0] $end
$upscope $end
$upscope $end
$upscope $end
$scope module hazard_test_with_memory $end
$scope module cpu_inst $end
$scope module reg_file $end
$var reg 32 i# \REGISTERS[29] [31:0] $end
$upscope $end
$upscope $end
$upscope $end
$scope module hazard_test_with_memory $end
$scope module cpu_inst $end
$scope module reg_file $end
$var reg 32 j# \REGISTERS[30] [31:0] $end
$upscope $end
$upscope $end
$upscope $end
$scope module hazard_test_with_memory $end
$scope module cpu_inst $end
$scope module reg_file $end
$var reg 32 k# \REGISTERS[31] [31:0] $end
$upscope $end
$upscope $end
$upscope $end
$enddefinitions $end
$comment Show the parameter values. $end
$dumpall
$end
#0
$dumpvars
bx k#
bx j#
bx i#
bx h#
bx g#
bx f#
bx e#
bx d#
bx c#
bx b#
bx a#
bx `#
bx _#
bx ^#
bx ]#
bx \#
bx [#
bx Z#
bx Y#
bx X#
bx W#
bx V#
bx U#
bx T#
bx S#
bx R#
bx Q#
bx P#
bx O#
bx N#
bx M#
bx L#
b0 K#
b0 J#
b0 I#
b0 H#
b0 G#
b0 F#
b0 E#
bx D#
b100000 C#
bx B#
b0 A#
b0 @#
b0 ?#
bx >#
bx =#
b100 <#
b0 ;#
b0 :#
b100 9#
bx 8#
bx 7#
bx 6#
b0 5#
bx 4#
b0 3#
b0 2#
bx 1#
b0 0#
b0 /#
b0 .#
b0 -#
b0 ,#
bx +#
b0 *#
b0 )#
b10101010 (#
b0 '#
b0 &#
b0 %#
b0 $#
b100000000000010010011 ##
b0 "#
b0 !#
b0 ~"
b0 }"
b0 |"
b0 {"
b0 z"
b0 y"
b0 x"
b0 w"
b0 v"
b0 u"
bx t"
bx s"
bx r"
bx q"
bx p"
b0 o"
bx n"
bx m"
b0 l"
b0 k"
b0 j"
b0 i"
b0 h"
b0 g"
b0 f"
b0 e"
bx d"
bx c"
b0 b"
b0 a"
bx `"
bx _"
bx ^"
b0 ]"
bx \"
b0 ["
b0 Z"
b0 Y"
b0 X"
b0 W"
b0 V"
b0 U"
b0 T"
b0 S"
b0 R"
b0 Q"
b0 P"
b0 O"
bx N"
b0 M"
b0 L"
b0 K"
bx J"
b0 I"
b0 H"
bx G"
bx F"
bx E"
bx D"
bx C"
bx B"
b0 A"
b0 @"
b0 ?"
b0 >"
b0 ="
b0 <"
bx ;"
bx :"
b0 9"
bx 8"
b0 7"
bx 6"
bx 5"
bx 4"
bx 3"
bx 2"
bx 1"
bx 0"
bx /"
bx ."
bx -"
bx ,"
bx +"
bx *"
bx )"
bx ("
bx '"
bx &"
bx %"
bx $"
b0 #"
bx ""
b0 !"
b0 ~
bx }
b0 |
bx {
b0 z
b0 y
0x
0w
b0 v
b0 u
1t
1s
b0 r
b0 q
bx p
b0 o
b0 n
b0 m
b0 l
0k
b0 j
bx i
b0 h
b0 g
bx f
b0 e
0d
xc
1b
b0 a
b0 `
bx _
b0 ^
b0 ]
bx \
bx [
b0 Z
b100 Y
0X
0W
bx V
0U
xT
0S
0R
b0 Q
bx P
b0 O
b0 N
b0 M
b0 L
b0 K
bx J
bx I
b0 H
bx G
bx F
0E
0D
bx C
bx B
b0 A
b0 @
z?
b100000000000010010011 >
b0 =
b0 <
b10101010 ;
bx :
bx 9
bx 8
bx 7
b100000 6
15
04
b0 3
b0 2
01
00
b0 /
b0 .
1-
1,
b0 +
b0 *
1)
b0 (
b0 '
b0 &
bx %
bx $
0#
b100000000000010010011 "
b10101010 !
$end
#1000
b0 k#
b0 j#
b0 i#
b0 h#
b0 g#
b0 f#
b0 e#
b0 d#
b0 c#
b0 b#
b0 a#
b0 `#
b0 _#
b0 ^#
b0 ]#
b0 \#
b0 [#
b0 Z#
b0 Y#
b0 X#
b0 W#
b0 V#
b0 U#
b0 T#
b0 S#
b0 R#
b0 Q#
b0 P#
b0 O#
b0 N#
b0 M#
b0 L#
b0 $"
b0 8"
b0 ;"
b0 V
b0 J"
b0 ^"
b0 B#
b100 \
b100 4#
b100 7#
b100 [
b100 +#
b100 6#
#2000
b0 -"
b0 ,"
b0 0"
b100 _
b100 1#
b100 8#
b0 %"
b0 p
b0 E"
b0 D#
b0 f
b0 C"
b0 q"
b0 i
b0 D"
b0 p"
b1 P
b1 B"
b1 t"
b0 {
b0 F"
b0 n"
#3000
b0 $
b0 C
b0 G
b0 d"
b0 s"
b0 %
b0 B
b0 J
b0 c"
b0 r"
1D
b0 ""
b0 :"
b0 N"
b0 \"
b0 I
b0 `"
b0 =#
b0 F
b0 _"
b0 >#
b0 ."
b0 /"
b0 )"
b0 *"
b0 6"
1T
0c
b0 }
b0 G"
b0 m"
#4000
b0 +"
b0 ("
b0 '"
b0 &"
#5000
b0 1"
b0 2"
b0 4"
b0 5"
b0 3"
14
#10000
b100000 C#
04
#11000
b0 k#
b0 j#
b0 i#
b0 h#
b0 g#
b0 f#
b0 e#
b0 d#
b0 c#
b0 b#
b0 a#
b0 `#
b0 _#
b0 ^#
b0 ]#
b0 \#
b0 [#
b0 Z#
b0 Y#
b0 X#
b0 W#
b0 V#
b0 U#
b0 T#
b0 S#
b0 R#
b0 Q#
b0 P#
b0 O#
b0 N#
b0 M#
b0 L#
#15000
14
#20000
04
05
#25000
b1 q
b1 v"
b1 K#
b1 I#
b1 G#
b100000000000 J#
b100000000000000000000 F#
b100000000000 H#
b1 o"
b10000000000001 E#
b10011 A"
b1 &
b1 A
b1 L
b1 h"
b1 @#
b10101010 y
b10101010 K"
b10101010 -#
b100 Z
b100 M"
b100 /#
zk
1U
b1 Q
b1 O"
b1 "#
b100000000000010010011 n
b100000000000010010011 %#
b100000000000010010011 7
b100000000000010010011 9
14
#26000
b100 V
b100 J"
b100 ^"
b100 B#
#27000
b100000000000100010011 "
b100000000000100010011 >
b100000000000100010011 ##
b100 (
b100 ]
b100 $#
b100 2#
b100 3#
#28000
b1000 \
b1000 4#
b1000 7#
1c
#29000
b1000 _
b1000 1#
b1000 8#
#30000
04
#35000
b10 G#
b10 J#
b10 o"
b10000000000010 E#
b1 .
b1 =
b1 u
b1 a"
b1 l"
b100 `
b100 u"
b100 &#
b100000000000100010011 n
b100000000000100010011 %#
1d
b1 r
b1 <"
b1 S"
b1 z"
b1 o
b1 T"
b1 j"
b1 y"
1S
b1 O
b1 ["
b1 *#
b0 8
b100000000000100010011 7
b100000000000100010011 9
14
#36000
b1 $"
b1 8"
b1 ;"
#37000
b1000001000011001100011 "
b1000001000011001100011 >
b1000001000011001100011 ##
b1000 (
b1000 ]
b1000 $#
b1000 2#
b1000 3#
#38000
b1 $
b1 C
b1 G
b1 d"
b1 s"
0D
b1 ""
b1 :"
b1 N"
b1 \"
b1100 \
b1100 4#
b1100 7#
b1 ."
b1 /"
b1 )"
b1 *"
b1 6"
#39000
b1100 _
b1100 1#
b1100 8#
b11111111111111111111111111111111 +"
#40000
04
#45000
b10 q
b10 v"
b10 K#
b10 I#
b1100 G#
b1100 J#
b1000001000000000000000 F#
b1000000000000010 H#
b1 %
b1 B
b1 J
b1 c"
b1 r"
b10 /
b10 <
b10 v
b10 b"
b10 k"
b1100 o"
b100000100001100 E#
b1100011 A"
b10 &
b10 A
b10 L
b10 h"
b10 @#
b1 '
b1 @
b1 M
b1 g"
b1 ?#
1R
b1 N
b1 I"
b1 0#
b101 Y
b101 9#
b101 <#
b1 2
b1 z
b1 W"
b1 ;#
b1 m
b1 V"
b1 f"
b1 )#
b1 3
b1 !"
b1 U"
b1 ]"
b1 '#
b1 H
b1 ="
b1 !#
b100 a
b100 P"
b100 }"
b10 o
b10 T"
b10 j"
b10 y"
b1000 `
b1000 u"
b1000 &#
b1000001000011001100011 n
b1000001000011001100011 %#
b1 8
b1000001000011001100011 7
b1000001000011001100011 9
14
#46000
b0 V
b0 J"
b0 ^"
b0 B#
#47000
b110001100000000000110010011 "
b110001100000000000110010011 >
b110001100000000000110010011 ##
b1100 (
b1100 ]
b1100 $#
b1100 2#
b1100 3#
b1100 q
b1100 v"
b1100 K#
b10 p
b10 E"
b10 D#
b1 {
b1 F"
b1 n"
#48000
b10000 \
b10000 4#
b10000 7#
0c
b10000 }
b10000 G"
b10000 m"
0T
#49000
b10000 _
b10000 1#
b10000 8#
#50000
04
#55000
b100001100010 q
b100001100010 v"
b100001100010 K#
b0 $
b0 C
b0 G
b0 d"
b0 s"
b1100011 I#
b1100011 G#
b100001100010 J#
b110001100000000000000000000 F#
b100001100010 H#
b0 %
b0 B
b0 J
b0 c"
b0 r"
b11 o"
b11000110000000000011 E#
b11 @"
b10011 A"
b11 &
b11 A
b11 L
b11 h"
b11 @#
b0 '
b0 @
b0 M
b0 g"
b0 ?#
b11111111111111111111111111111111 ""
b11111111111111111111111111111111 :"
b11111111111111111111111111111111 N"
b11111111111111111111111111111111 \"
b0 .
b0 =
b0 u
b0 a"
b0 l"
b0 /
b0 <
b0 v
b0 b"
b0 k"
b1100 `
b1100 u"
b1100 &#
b110001100000000000110010011 n
b110001100000000000110010011 %#
0U
0d
b1 |
b1 >"
b1 e"
b1 x"
b10000 #"
b10000 7"
b10000 w"
b1100 r
b1100 <"
b1100 S"
b1100 z"
b1 K
b1 9"
b1 ~"
b1000 a
b1000 P"
b1000 }"
b1100 o
b1100 T"
b1100 j"
b1100 y"
b1001 Y
b1001 9#
b1001 <#
b100 ^
b100 Z"
b100 5#
b100 :#
b10 m
b10 V"
b10 f"
b10 )#
b1 l
b1 i"
b1 .#
b1 A#
b1 ~
b1 L"
b1 ,#
b1 8
b110001100000000000110010011 7
b110001100000000000110010011 9
14
#56000
b1 V
b1 J"
b1 ^"
b1 B#
b10 0"
b1000 [
b1000 +#
b1000 6#
#57000
b101100000000000001010010011 "
b101100000000000001010010011 >
b101100000000000001010010011 ##
b10000 (
b10000 ]
b10000 $#
b10000 2#
b10000 3#
b1100011 q
b1100011 v"
b1100011 K#
b0 p
b0 E"
b0 D#
b0 {
b0 F"
b0 n"
b0 ."
b0 /"
b1 %"
b0 *"
b10 6"
#58000
11
1x
10
1w
1X
1D
b0 ""
b0 :"
b0 N"
b0 \"
b10100 \
b10100 4#
b10100 7#
1c
b0 }
b0 G"
b0 m"
1T
b0 +"
#59000
b10100 _
b10100 1#
b10100 8#
b1 4"
b1 5"
b1 3"
#60000
04
#61000
b1 M#
